toUpper_waveform.vcd
$date
	Thu Oct 30 00:02:38 2025
$end
$version
	Icarus Verilog
$end
$timescale
	1ps
$end
$scope module toUpper_tb $end
$var wire 8 ! Y [7:0] $end
$var reg 8 " A [7:0] $end
$var integer 32 # errors [31:0] $end
$var integer 32 $ i [31:0] $end
$scope module uut $end
$var wire 8 % A [7:0] $end
$var wire 1 & and1 $end
$var wire 1 ' and2 $end
$var wire 1 ( and3 $end
$var wire 1 ) and4 $end
$var wire 1 * and5 $end
$var wire 1 + lowercase $end
$var wire 1 , not_A0 $end
$var wire 1 - not_A1 $end
$var wire 1 . not_A2 $end
$var wire 1 / not_A3 $end
$var wire 1 0 not_A4 $end
$var wire 1 1 not_A5 $end
$var wire 1 2 not_A6 $end
$var wire 1 3 not_A7 $end
$var wire 1 4 not_lowercase $end
$var wire 1 5 or1 $end
$var wire 1 6 or2 $end
$var wire 1 7 or3 $end
$var wire 8 8 Y [7:0] $end
$upscope $end
$upscope $end
$enddefinitions $end
$comment Show the parameter values. $end
$dumpall
$end
#0
$dumpvars
bx 8
x7
x6
x5
x4
x3
x2
x1
x0
x/
x.
x-
x,
x+
x*
x)
x(
x'
x&
b101000 %
b0 $
b0 #
b101000 "
bx !
$end
#4000
b0x01000 !
b0x01000 8
#5000
13
12
01
10
0/
1.
1-
1,
#10000
0&
0'
15
0)
#20000
0(
17
0*
#30000
06
0+
#35000
14
#45000
b101000 !
b101000 8
#60000
b1001000 "
b1001000 %
b1 $
#64000
b1101000 !
b1101000 8
#65000
02
11
#70000
1)
b1001000 !
b1001000 8
#120000
b10110111 "
b10110111 %
b10 $
#124000
b10010111 !
b10010111 8
#125000
03
12
01
00
1/
0.
0-
0,
#130000
1'
0)
1*
b10110111 !
b10110111 8
#140000
0*
1+
#145000
04
#150000
0+
#155000
14
b10010111 !
b10010111 8
#165000
b10110111 !
b10110111 8
#180000
b10000011 "
b10000011 %
b11 $
#184000
b10100011 !
b10100011 8
#185000
11
10
1.
#190000
0'
05
b10000011 !
b10000011 8
#200000
07
#240000
b1111100 "
b1111100 %
b100 $
#244000
b1011100 !
b1011100 8
#245000
13
02
01
00
0/
0.
1-
1,
#250000
15
b1111100 !
b1111100 8
#255000
1)
1&
#260000
17
#265000
1*
16
#275000
1+
#280000
04
#290000
b1011100 !
b1011100 8
#300000
b10100 "
b10100 %
b101 $
b1 #
#304000
b10100 !
b10100 8
#305000
12
11
1/
#310000
0)
0*
#320000
0+
#325000
14
#360000
b11101011 "
b11101011 %
b110 $
#364000
b11001011 !
b11001011 8
#365000
03
02
01
10
0/
1.
0-
0,
#370000
0&
b11101011 !
b11101011 8
#380000
06
#420000
b1100001 "
b1100001 %
b111 $
#424000
b1100001 !
b1100001 8
#425000
13
1/
1-
#430000
05
#435000
1)
#440000
07
#445000
1*
#480000
b1000001 "
b1000001 %
b1000 $
b10 #
#485000
11
#490000
0*
b1000001 !
b1000001 8
#540000
b1111010 "
b1111010 %
b1001 $
#544000
b1011010 !
b1011010 8
#545000
01
00
0/
0-
1,
#550000
15
1*
b1111010 !
b1111010 8
#560000
17
#570000
1+
#575000
04
#585000
b1011010 !
b1011010 8
#600000
b1000111 "
b1000111 %
b1010 $
#604000
b1000111 !
b1000111 8
#605000
11
10
1/
0.
0,
#610000
1'
05
0*
#620000
07
0+
#625000
14
#660000
b1101101 "
b1101101 %
b1011 $
#664000
b1001101 !
b1001101 8
#665000
01
0/
1-
#670000
0'
15
1*
b1101101 !
b1101101 8
#675000
1&
#680000
17
#685000
16
#690000
1+
#695000
04
#705000
b1001101 !
b1001101 8
#720000
b10010010 "
b10010010 %
b1100 $
#724000
b10010010 !
b10010010 8
#725000
03
12
11
00
1/
1.
0-
1,
#730000
0&
0)
0*
#740000
06
0+
#745000
14
#780000
b110000 "
b110000 %
b1101 $
#784000
b10000 !
b10000 8
#785000
13
01
1-
#790000
b110000 !
b110000 8
#840000
b11001111 "
b11001111 %
b1110 $
#844000
b11101111 !
b11101111 8
#845000
03
02
11
10
0/
0.
0-
0,
#850000
1'
b11001111 !
b11001111 8
#900000
b111010 "
b111010 %
b1111 $
#904000
b11010 !
b11010 8
#905000
13
12
01
00
1.
1,
#910000
0'
b111010 !
b111010 8
#960000
b1111011 "
b1111011 %
b10000 $
#964000
b1111011 !
b1111011 8
#965000
02
0,
#970000
1)
#980000
1*
#990000
1+
#995000
04
#1005000
b1011011 !
b1011011 8
#1020000
b10010100 "
b10010100 %
b10001 $
b11 #
#1024000
b10010100 !
b10010100 8
#1025000
03
12
11
1/
0.
1-
1,
#1030000
0)
0*
#1035000
1&
#1040000
0+
#1045000
14
16
#1080000
b1111111 "
b1111111 %
b10010 $
#1084000
b1011111 !
b1011111 8
#1085000
13
02
01
0/
0-
0,
#1090000
1'
b1111111 !
b1111111 8
#1095000
1)
0&
#1105000
1*
06
#1115000
1+
#1120000
04
#1130000
b1011111 !
b1011111 8
#1140000
b10011 $
b100 #
